<?xml version="1.0" encoding="utf-8"?>
<!-- Generator: Adobe Illustrator 16.0.0, SVG Export Plug-In . SVG Version: 6.00 Build 0)  -->
<!DOCTYPE svg PUBLIC "-//W3C//DTD SVG 1.1//EN" "http://www.w3.org/Graphics/SVG/1.1/DTD/svg11.dtd">
<svg version="1.1" id="レイヤー_1" xmlns="http://www.w3.org/2000/svg" xmlns:xlink="http://www.w3.org/1999/xlink" x="0px"
	 y="0px" width="121px" height="34.25px" viewBox="0 0 121 34.25" enable-background="new 0 0 121 34.25" xml:space="preserve">
<g>
	<g>
		<path fill="#E5004E" d="M71.965,17.275c-0.132,0-0.266-0.018-0.398-0.053c-0.8-0.22-1.269-1.045-1.049-1.844l3.556-12.925
			c0.221-0.8,1.049-1.264,1.844-1.049c0.799,0.219,1.269,1.044,1.049,1.843L73.41,16.173C73.227,16.839,72.623,17.275,71.965,17.275
			z"/>
		<path fill="#E5004E" d="M50.957,17.43c-0.669,0-1.279-0.449-1.452-1.127L46.167,3.267c-0.206-0.802,0.278-1.62,1.081-1.824
			c0.805-0.211,1.62,0.278,1.825,1.081l3.338,13.035c0.206,0.803-0.278,1.62-1.081,1.825C51.205,17.417,51.08,17.43,50.957,17.43z"
			/>
		<path fill="#E5004E" d="M31.525,22.264c-0.46,0-0.916-0.212-1.209-0.612l-7.557-10.273c-0.491-0.667-0.348-1.607,0.32-2.097
			c0.667-0.493,1.606-0.348,2.097,0.319l7.557,10.273c0.491,0.667,0.348,1.606-0.32,2.097
			C32.145,22.169,31.833,22.264,31.525,22.264z"/>
		<path fill="#E5004E" d="M91.901,21.928c-0.316,0-0.636-0.1-0.907-0.307c-0.659-0.5-0.787-1.442-0.285-2.102l7.758-10.193
			c0.5-0.66,1.441-0.788,2.102-0.286c0.659,0.501,0.787,1.442,0.285,2.101l-7.758,10.194C92.801,21.723,92.354,21.928,91.901,21.928
			z"/>
	</g>
	<path fill="#E5004E" d="M15.57,32.355c-0.25,0-0.502-0.063-0.735-0.194L2.459,25.185c-0.722-0.407-0.977-1.321-0.57-2.043
		c0.406-0.722,1.322-0.975,2.043-0.569l12.375,6.976c0.722,0.407,0.977,1.321,0.57,2.043C16.603,32.081,16.094,32.355,15.57,32.355z
		"/>
	<path fill="#E5004E" d="M108.074,32.355c-0.479,0-0.949-0.229-1.24-0.655c-0.467-0.685-0.291-1.617,0.394-2.084l10.222-6.977
		c0.684-0.464,1.616-0.292,2.085,0.394c0.467,0.685,0.291,1.617-0.394,2.085l-10.222,6.977
		C108.66,32.27,108.366,32.355,108.074,32.355z"/>
</g>
</svg>
