<?xml version="1.0" encoding="utf-8"?>
<!-- Generator: Adobe Illustrator 16.0.0, SVG Export Plug-In . SVG Version: 6.00 Build 0)  -->
<!DOCTYPE svg PUBLIC "-//W3C//DTD SVG 1.1//EN" "http://www.w3.org/Graphics/SVG/1.1/DTD/svg11.dtd">
<svg version="1.1" id="レイヤー_1" xmlns="http://www.w3.org/2000/svg" xmlns:xlink="http://www.w3.org/1999/xlink" x="0px"
	 y="0px" width="283.833px" height="75.167px" viewBox="0 0 283.833 75.167" enable-background="new 0 0 283.833 75.167"
	 xml:space="preserve">
<g>
	<path fill="#E5004E" d="M282.897,0L141.948,73.851L1,0H282.897z"/>
</g>
</svg>
